{
    "abi": [
        {
            "constant": false,
            "inputs": [
                {
                    "name": "refundee",
                    "type": "address"
                }
            ],
            "name": "claimRefund",
            "outputs": [],
            "payable": false,
            "stateMutability": "nonpayable",
            "type": "function"
        },
        {
            "payable": true,
            "stateMutability": "payable",
            "type": "fallback"
        },
        {
            "anonymous": false,
            "inputs": [
                {
                    "indexed": true,
                    "name": "sender",
                    "type": "address"
                },
                {
                    "indexed": false,
                    "name": "value",
                    "type": "uint256"
                }
            ],
            "name": "DepositedFromFallback",
            "type": "event"
        }
    ],
    "bytecode": "",
    "functionHashes": {
        "claimRefund(address)": "bffa55d5"
    },
    "gasEstimates": null
}