{
    "contracts": {
        "c:/Users/Admin/Documents/Projects/ZeroDollarVoxelPage/BlockchainDev/contracts/CompliancyChecker/ICompliancyChecker.sol": {
            "ICompliancyChecker": {
                "abi": [
                    {
                        "constant": true,
                        "inputs": [
                            {
                                "name": "target",
                                "type": "address"
                            }
                        ],
                        "name": "getCompliancyLevelFor",
                        "outputs": [
                            {
                                "name": "compliancyLevel",
                                "type": "uint256"
                            }
                        ],
                        "payable": false,
                        "stateMutability": "view",
                        "type": "function"
                    },
                    {
                        "constant": true,
                        "inputs": [
                            {
                                "name": "compliancyLevel",
                                "type": "uint256"
                            }
                        ],
                        "name": "getCompliancyLevelName",
                        "outputs": [
                            {
                                "name": "compliancyLevelName",
                                "type": "string"
                            }
                        ],
                        "payable": false,
                        "stateMutability": "pure",
                        "type": "function"
                    }
                ],
                "devdoc": {
                    "methods": {}
                },
                "evm": {
                    "bytecode": {
                        "linkReferences": {},
                        "object": "",
                        "opcodes": "",
                        "sourceMap": ""
                    },
                    "gasEstimates": null,
                    "methodIdentifiers": {
                        "getCompliancyLevelFor(address)": "2f5c8504",
                        "getCompliancyLevelName(uint256)": "9348a672"
                    }
                },
                "metadata": "{\"compiler\":{\"version\":\"0.5.7+commit.6da8b019\"},\"language\":\"Solidity\",\"output\":{\"abi\":[{\"constant\":true,\"inputs\":[{\"name\":\"target\",\"type\":\"address\"}],\"name\":\"getCompliancyLevelFor\",\"outputs\":[{\"name\":\"compliancyLevel\",\"type\":\"uint256\"}],\"payable\":false,\"stateMutability\":\"view\",\"type\":\"function\"},{\"constant\":true,\"inputs\":[{\"name\":\"compliancyLevel\",\"type\":\"uint256\"}],\"name\":\"getCompliancyLevelName\",\"outputs\":[{\"name\":\"compliancyLevelName\",\"type\":\"string\"}],\"payable\":false,\"stateMutability\":\"pure\",\"type\":\"function\"}],\"devdoc\":{\"methods\":{}},\"userdoc\":{\"methods\":{}}},\"settings\":{\"compilationTarget\":{\"c:/Users/Admin/Documents/Projects/ZeroDollarVoxelPage/BlockchainDev/contracts/CompliancyChecker/ICompliancyChecker.sol\":\"ICompliancyChecker\"},\"evmVersion\":\"petersburg\",\"libraries\":{},\"optimizer\":{\"enabled\":true,\"runs\":200},\"remappings\":[]},\"sources\":{\"c:/Users/Admin/Documents/Projects/ZeroDollarVoxelPage/BlockchainDev/contracts/CompliancyChecker/ICompliancyChecker.sol\":{\"keccak256\":\"0xaf0cb5c87d6810600e40733c96f09b49121a3fa76dd48f8a42b97eaeca5c1970\",\"urls\":[\"bzzr://5675f34206ff9c9f8b5ad550433cff1e1398883cd115f099074e2766868c0a62\"]}},\"version\":1}",
                "userdoc": {
                    "methods": {}
                }
            }
        }
    },
    "sources": {
        "c:/Users/Admin/Documents/Projects/ZeroDollarVoxelPage/BlockchainDev/contracts/CompliancyChecker/ICompliancyChecker.sol": {
            "ast": {
                "absolutePath": "c:/Users/Admin/Documents/Projects/ZeroDollarVoxelPage/BlockchainDev/contracts/CompliancyChecker/ICompliancyChecker.sol",
                "exportedSymbols": {
                    "ICompliancyChecker": [
                        16
                    ]
                },
                "id": 17,
                "nodeType": "SourceUnit",
                "nodes": [
                    {
                        "id": 1,
                        "literals": [
                            "solidity",
                            "^",
                            "0.5",
                            ".2"
                        ],
                        "nodeType": "PragmaDirective",
                        "src": "0:23:0"
                    },
                    {
                        "baseContracts": [],
                        "contractDependencies": [],
                        "contractKind": "contract",
                        "documentation": null,
                        "fullyImplemented": false,
                        "id": 16,
                        "linearizedBaseContracts": [
                            16
                        ],
                        "name": "ICompliancyChecker",
                        "nodeType": "ContractDefinition",
                        "nodes": [
                            {
                                "body": null,
                                "documentation": null,
                                "id": 8,
                                "implemented": false,
                                "kind": "function",
                                "modifiers": [],
                                "name": "getCompliancyLevelFor",
                                "nodeType": "FunctionDefinition",
                                "parameters": {
                                    "id": 4,
                                    "nodeType": "ParameterList",
                                    "parameters": [
                                        {
                                            "constant": false,
                                            "id": 3,
                                            "name": "target",
                                            "nodeType": "VariableDeclaration",
                                            "scope": 8,
                                            "src": "94:14:0",
                                            "stateVariable": false,
                                            "storageLocation": "default",
                                            "typeDescriptions": {
                                                "typeIdentifier": "t_address",
                                                "typeString": "address"
                                            },
                                            "typeName": {
                                                "id": 2,
                                                "name": "address",
                                                "nodeType": "ElementaryTypeName",
                                                "src": "94:7:0",
                                                "stateMutability": "nonpayable",
                                                "typeDescriptions": {
                                                    "typeIdentifier": "t_address",
                                                    "typeString": "address"
                                                }
                                            },
                                            "value": null,
                                            "visibility": "internal"
                                        }
                                    ],
                                    "src": "93:16:0"
                                },
                                "returnParameters": {
                                    "id": 7,
                                    "nodeType": "ParameterList",
                                    "parameters": [
                                        {
                                            "constant": false,
                                            "id": 6,
                                            "name": "compliancyLevel",
                                            "nodeType": "VariableDeclaration",
                                            "scope": 8,
                                            "src": "158:23:0",
                                            "stateVariable": false,
                                            "storageLocation": "default",
                                            "typeDescriptions": {
                                                "typeIdentifier": "t_uint256",
                                                "typeString": "uint256"
                                            },
                                            "typeName": {
                                                "id": 5,
                                                "name": "uint256",
                                                "nodeType": "ElementaryTypeName",
                                                "src": "158:7:0",
                                                "typeDescriptions": {
                                                    "typeIdentifier": "t_uint256",
                                                    "typeString": "uint256"
                                                }
                                            },
                                            "value": null,
                                            "visibility": "internal"
                                        }
                                    ],
                                    "src": "157:25:0"
                                },
                                "scope": 16,
                                "src": "63:120:0",
                                "stateMutability": "view",
                                "superFunction": null,
                                "visibility": "public"
                            },
                            {
                                "body": null,
                                "documentation": null,
                                "id": 15,
                                "implemented": false,
                                "kind": "function",
                                "modifiers": [],
                                "name": "getCompliancyLevelName",
                                "nodeType": "FunctionDefinition",
                                "parameters": {
                                    "id": 11,
                                    "nodeType": "ParameterList",
                                    "parameters": [
                                        {
                                            "constant": false,
                                            "id": 10,
                                            "name": "compliancyLevel",
                                            "nodeType": "VariableDeclaration",
                                            "scope": 15,
                                            "src": "223:23:0",
                                            "stateVariable": false,
                                            "storageLocation": "default",
                                            "typeDescriptions": {
                                                "typeIdentifier": "t_uint256",
                                                "typeString": "uint256"
                                            },
                                            "typeName": {
                                                "id": 9,
                                                "name": "uint256",
                                                "nodeType": "ElementaryTypeName",
                                                "src": "223:7:0",
                                                "typeDescriptions": {
                                                    "typeIdentifier": "t_uint256",
                                                    "typeString": "uint256"
                                                }
                                            },
                                            "value": null,
                                            "visibility": "internal"
                                        }
                                    ],
                                    "src": "222:25:0"
                                },
                                "returnParameters": {
                                    "id": 14,
                                    "nodeType": "ParameterList",
                                    "parameters": [
                                        {
                                            "constant": false,
                                            "id": 13,
                                            "name": "compliancyLevelName",
                                            "nodeType": "VariableDeclaration",
                                            "scope": 15,
                                            "src": "296:33:0",
                                            "stateVariable": false,
                                            "storageLocation": "memory",
                                            "typeDescriptions": {
                                                "typeIdentifier": "t_string_memory_ptr",
                                                "typeString": "string"
                                            },
                                            "typeName": {
                                                "id": 12,
                                                "name": "string",
                                                "nodeType": "ElementaryTypeName",
                                                "src": "296:6:0",
                                                "typeDescriptions": {
                                                    "typeIdentifier": "t_string_storage_ptr",
                                                    "typeString": "string"
                                                }
                                            },
                                            "value": null,
                                            "visibility": "internal"
                                        }
                                    ],
                                    "src": "295:35:0"
                                },
                                "scope": 16,
                                "src": "191:140:0",
                                "stateMutability": "pure",
                                "superFunction": null,
                                "visibility": "public"
                            }
                        ],
                        "scope": 17,
                        "src": "27:307:0"
                    }
                ],
                "src": "0:334:0"
            },
            "id": 0
        }
    }
}